0.010000000
0.032258065
0.038461538
0.047619048
0.050000000
0.052631579
0.055555556
0.058823529
0.062500000
0.066666667
0.071428571
0.076923077
0.078514589
0.080106101
0.081697613
0.083333333
0.084848485
0.086363636
0.087878788
0.089393939
0.090909091
0.092424242
0.093939394
0.095454545
0.096969697
0.098484848
0.100000000
0.101851852
0.103703704
0.105555556
0.107407407
0.109259259
0.111111111
0.112654321
0.114197531
0.115740741
0.117283951
0.118827160
0.120370370
0.121913580
0.123456790
0.125000000
0.126623377
0.128246753
0.129870130
0.131493506
0.133116883
0.134740260
0.136363636
0.137987013
0.139610390
0.141233766
0.142857143
0.144444444
0.146031746
0.147619048
0.149206349
0.150793651
0.152380952
0.153968254
0.155555556
0.157142857
0.158730159
0.160317460
0.161904762
0.163492063
0.165079365
0.166666667
0.168253968
0.169841270
0.171428571
0.173015873
0.174603175
0.176190476
0.177777778
0.179365079
0.180952381
0.182539683
0.184126984
0.185714286
0.187301587
0.188888889
0.190476190
0.192063492
0.193650794
0.195238095
0.196825397
0.198412698
0.200000000
0.201562500
0.203125000
0.204687500
0.206250000
0.207812500
0.209375000
0.210937500
0.212500000
0.214062500
0.215625000
0.217187500
0.218750000
0.220312500
0.221875000
0.223437500
0.225000000
0.226562500
0.228125000
0.229687500
0.231250000
0.232812500
0.234375000
0.235937500
0.237500000
0.239062500
0.240625000
0.242187500
0.243750000
0.245312500
0.246875000
0.248437500
0.250000000
0.251602564
0.253205128
0.254807692
0.256410256
0.258012821
0.259615385
0.261217949
0.262820513
0.264423077
0.266025641
0.267628205
0.269230769
0.270833333
0.272435897
0.274038462
0.275641026
0.277243590
0.278846154
0.280448718
0.282051282
0.283653846
0.285256410
0.286858974
0.288461538
0.290064103
0.291666667
0.293269231
0.294871795
0.296474359
0.298076923
0.299679487
0.301282051
0.302884615
0.304487179
0.306089744
0.307692308
0.309294872
0.310897436
0.312500000
0.314102564
0.315705128
0.317307692
0.318910256
0.320512821
0.322115385
0.323717949
0.325320513
0.326923077
0.328525641
0.330128205
0.331730769
0.333333333
0.334920635
0.336507937
0.338095238
0.339682540
0.341269841
0.342857143
0.344444444
0.346031746
0.347619048
0.349206349
0.350793651
0.352380952
0.353968254
0.355555556
0.357142857
0.358730159
0.360317460
0.361904762
0.363492063
0.365079365
0.366666667
0.368253968
0.369841270
0.371428571
0.373015873
0.374603175
0.376190476
0.377777778
0.379365079
0.380952381
0.382539683
0.384126984
0.385714286
0.387301587
0.388888889
0.390476190
0.392063492
0.393650794
0.395238095
0.396825397
0.398412698
0.400000000
0.401587302
0.403174603
0.404761905
0.406349206
0.407936508
0.409523810
0.411111111
0.412698413
0.414285714
0.415873016
0.417460317
0.419047619
0.420634921
0.422222222
0.423809524
0.425396825
0.426984127
0.428571429
0.430158730
0.431746032
0.433333333
0.434920635
0.436507937
0.438095238
0.439682540
0.441269841
0.442857143
0.444444444
0.446031746
0.447619048
0.449206349
0.450793651
0.452380952
0.453968254
0.455555556
0.457142857
0.458730159
0.460317460
0.461904762
0.463492063
0.465079365
0.466666667
0.468253968
0.469841270
0.471428571
0.473015873
0.474603175
0.476190476
0.477777778
0.479365079
0.480952381
0.482539683
0.484126984
0.485714286
0.487301587
0.488888889
0.490476190
0.492063492
0.493650794
0.495238095
0.496825397
0.498412698
0.500000000
0.501592357
0.503184713
0.504777070
0.506369427
0.507961783
0.509554140
0.511146497
0.512738854
0.514331210
0.515923567
0.517515924
0.519108280
0.520700637
0.522292994
0.523885350
0.525477707
0.527070064
0.528662420
0.530254777
0.531847134
0.533439490
0.535031847
0.536624204
0.538216561
0.539808917
0.541401274
0.542993631
0.544585987
0.546178344
0.547770701
0.549363057
0.550955414
0.552547771
0.554140127
0.555732484
0.557324841
0.558917197
0.560509554
0.562101911
0.563694268
0.565286624
0.566878981
0.568471338
0.570063694
0.571656051
0.573248408
0.574840764
0.576433121
0.578025478
0.579617834
0.581210191
0.582802548
0.584394904
0.585987261
0.587579618
0.589171975
0.590764331
0.592356688
0.593949045
0.595541401
0.597133758
0.598726115
0.600318471
0.601910828
0.603503185
0.605095541
0.606687898
0.608280255
0.609872611
0.611464968
0.613057325
0.614649682
0.616242038
0.617834395
0.619426752
0.621019108
0.622611465
0.624203822
0.625796178
0.627388535
0.628980892
0.630573248
0.632165605
0.633757962
0.635350318
0.636942675
0.638535032
0.640127389
0.641719745
0.643312102
0.644904459
0.646496815
0.648089172
0.649681529
0.651273885
0.652866242
0.654458599
0.656050955
0.657643312
0.659235669
0.660828025
0.662420382
0.664012739
0.665605096
0.667197452
0.668789809
0.670382166
0.671974522
0.673566879
0.675159236
0.676751592
0.678343949
0.679936306
0.681528662
0.683121019
0.684713376
0.686305732
0.687898089
0.689490446
0.691082803
0.692675159
0.694267516
0.695859873
0.697452229
0.699044586
0.700636943
0.702229299
0.703821656
0.705414013
0.707006369
0.708598726
0.710191083
0.711783439
0.713375796
0.714968153
0.716560510
0.718152866
0.719745223
0.721337580
0.722929936
0.724522293
0.726114650
0.727707006
0.729299363
0.730891720
0.732484076
0.734076433
0.735668790
0.737261146
0.738853503
0.740445860
0.742038217
0.743630573
0.745222930
0.746815287
0.748407643
0.750000000
0.751592357
0.753184713
0.754777070
0.756369427
0.757961783
0.759554140
0.761146497
0.762738854
0.764331210
0.765923567
0.767515924
0.769108280
0.770700637
0.772292994
0.773885350
0.775477707
0.777070064
0.778662420
0.780254777
0.781847134
0.783439490
0.785031847
0.786624204
0.788216561
0.789808917
0.791401274
0.792993631
0.794585987
0.796178344
0.797770701
0.799363057
0.800955414
0.802547771
0.804140127
0.805732484
0.807324841
0.808917197
0.810509554
0.812101911
0.813694268
0.815286624
0.816878981
0.818471338
0.820063694
0.821656051
0.823248408
0.824840764
0.826433121
0.828025478
0.829617834
0.831210191
0.832802548
0.834394904
0.835987261
0.837579618
0.839171975
0.840764331
0.842356688
0.843949045
0.845541401
0.847133758
0.848726115
0.850318471
0.851910828
0.853503185
0.855095541
0.856687898
0.858280255
0.859872611
0.861464968
0.863057325
0.864649682
0.866242038
0.867834395
0.869426752
0.871019108
0.872611465
0.874203822
0.875796178
0.877388535
0.878980892
0.880573248
0.882165605
0.883757962
0.885350318
0.886942675
0.888535032
0.890127389
0.891719745
0.893312102
0.894904459
0.896496815
0.898089172
0.899681529
0.901273885
0.902866242
0.904458599
0.906050955
0.907643312
0.909235669
0.910828025
0.912420382
0.914012739
0.915605096
0.917197452
0.918789809
0.920382166
0.921974522
0.923566879
0.925159236
0.926751592
0.928343949
0.929936306
0.931528662
0.933121019
0.934713376
0.936305732
0.937898089
0.939490446
0.941082803
0.942675159
0.944267516
0.945859873
0.947452229
0.949044586
0.950636943
0.952229299
0.953821656
0.955414013
0.957006369
0.958598726
0.960191083
0.961783439
0.963375796
0.964968153
0.966560510
0.968152866
0.969745223
0.971337580
0.972929936
0.974522293
0.9761146
0.977707006
0.979299363
0.980891720
0.982484076
0.984076433
0.985668790
0.987261146
0.988853503
0.990445860
0.992038217
0.992110596
0.992182976
0.992255356
0.992327736
0.992400116
0.992472496
0.992544876
0.992617255
0.992689635
0.992762015
0.992834395
0.992906775
0.992979155
0.993051534
0.993123914
0.993196294
0.993268674
0.993341054
0.993413434
0.993485814
0.993558193
0.993630573
0.993702953
0.993775333
0.993847713
0.993920093
0.993992472
0.994064852
0.994137232
0.994209612
0.994281992
0.994354372
0.994426752
0.994499131
0.994571511
0.994643891
0.994716271
0.994788651
0.994861031
0.994933411
0.995005790
0.995078170
0.995150550
0.995222930
0.995295310
0.995367690
0.995440069
0.995512449
0.995584829
0.995657209
0.995729589
0.995801969
0.995874349
0.995946728
0.996019108
0.996091488
0.996163868
0.996236248
0.996308628
0.996381008
0.996453387
0.996525767
0.996598147
0.996670527
0.996742907
0.996815287
0.996887666
0.996960046
0.997032426
0.997104806
0.997177186
0.997249566
0.997321946
0.997394325
0.997466705
0.997539085
0.997611465
0.997683845
0.997756225
0.997828605
0.997900984
0.997973364
0.998045744
0.998118124
0.998190504
0.998262884
0.998335263
0.998407643
0.998480023
0.998552403
0.998624783
0.998697163
0.998769543
0.998841922
0.998914302
0.998986682
0.999059062
0.999131442
0.999203822
0.999276202
0.999348581
0.999420961
0.999493341
0.999565721
0.999638101
0.999710481
0.999782860
0.999855240
0.999927620
1.000000000
